module github.com/cirocosta/monero-operator

go 1.17

require (
	github.com/MakeNowJust/heredoc v1.0.0
	github.com/cirocosta/go-monero v0.0.5
	github.com/google/go-cmp v0.5.6
	github.com/peterbourgon/ff/v3 v3.1.2
	github.com/vmware-labs/reconciler-runtime v0.3.0
	k8s.io/api v0.22.3
	k8s.io/apimachinery v0.22.3
	k8s.io/client-go v0.22.2
	k8s.io/utils v0.0.0-20210930125809-cb0fa318a74b
	sigs.k8s.io/controller-runtime v0.10.2
)

require (
	github.com/beorn7/perks v1.0.1 // indirect
	github.com/cespare/xxhash/v2 v2.1.1 // indirect
	github.com/davecgh/go-spew v1.1.1 // indirect
	github.com/evanphx/json-patch v4.11.0+incompatible // indirect
	github.com/evanphx/json-patch/v5 v5.3.0 // indirect
	github.com/fsnotify/fsnotify v1.4.9 // indirect
	github.com/go-logr/logr v0.4.0 // indirect
	github.com/go-logr/zapr v0.4.0 // indirect
	github.com/gogo/protobuf v1.3.2 // indirect
	github.com/golang/groupcache v0.0.0-20210331224755-41bb18bfe9da // indirect
	github.com/golang/protobuf v1.5.2 // indirect
	github.com/google/gofuzz v1.1.0 // indirect
	github.com/google/uuid v1.1.2 // indirect
	github.com/googleapis/gnostic v0.5.5 // indirect
	github.com/imdario/mergo v0.3.12 // indirect
	github.com/json-iterator/go v1.1.11 // indirect
	github.com/matttproud/golang_protobuf_extensions v1.0.2-0.20181231171920-c182affec369 // indirect
	github.com/modern-go/concurrent v0.0.0-20180306012644-bacd9c7ef1dd // indirect
	github.com/modern-go/reflect2 v1.0.1 // indirect
	github.com/pkg/errors v0.9.1 // indirect
	github.com/prometheus/client_golang v1.11.0 // indirect
	github.com/prometheus/client_model v0.2.0 // indirect
	github.com/prometheus/common v0.26.0 // indirect
	github.com/prometheus/procfs v0.6.0 // indirect
	github.com/spf13/pflag v1.0.5 // indirect
	go.uber.org/atomic v1.7.0 // indirect
	go.uber.org/multierr v1.6.0 // indirect
	go.uber.org/zap v1.19.0 // indirect
	golang.org/x/net v0.0.0-20210520170846-37e1c6afe023 // indirect
	golang.org/x/oauth2 v0.0.0-20210402161424-2e8d93401602 // indirect
	golang.org/x/sys v0.0.0-20211023085530-d6a326fbbf70 // indirect
	golang.org/x/term v0.0.0-20210220032956-6a3ed077a48d // indirect
	golang.org/x/text v0.3.6 // indirect
	golang.org/x/time v0.0.0-20210723032227-1f47c861a9ac // indirect
	golang.org/x/tools v0.1.5 // indirect
	gomodules.xyz/jsonpatch/v2 v2.2.0 // indirect
	google.golang.org/appengine v1.6.7 // indirect
	google.golang.org/protobuf v1.26.0 // indirect
	gopkg.in/inf.v0 v0.9.1 // indirect
	gopkg.in/yaml.v2 v2.4.0 // indirect
	gopkg.in/yaml.v3 v3.0.0-20210107192922-496545a6307b // indirect
	k8s.io/apiextensions-apiserver v0.22.2 // indirect
	k8s.io/component-base v0.22.2 // indirect
	k8s.io/klog/v2 v2.9.0 // indirect
	k8s.io/kube-openapi v0.0.0-20210421082810-95288971da7e // indirect
	sigs.k8s.io/structured-merge-diff/v4 v4.1.2 // indirect
	sigs.k8s.io/yaml v1.2.0 // indirect
)
