module github.com/cirocosta/monero-operator/tools

go 1.17

require sigs.k8s.io/controller-tools v0.7.0

require (
	github.com/fatih/color v1.12.0 // indirect
	github.com/go-logr/logr v0.4.0 // indirect
	github.com/gobuffalo/flect v0.2.3 // indirect
	github.com/gogo/protobuf v1.3.2 // indirect
	github.com/google/go-cmp v0.5.6 // indirect
	github.com/google/gofuzz v1.1.0 // indirect
	github.com/inconshreveable/mousetrap v1.0.0 // indirect
	github.com/json-iterator/go v1.1.11 // indirect
	github.com/mattn/go-colorable v0.1.8 // indirect
	github.com/mattn/go-isatty v0.0.12 // indirect
	github.com/modern-go/concurrent v0.0.0-20180306012644-bacd9c7ef1dd // indirect
	github.com/modern-go/reflect2 v1.0.1 // indirect
	github.com/spf13/cobra v1.2.1 // indirect
	github.com/spf13/pflag v1.0.5 // indirect
	golang.org/x/mod v0.4.2 // indirect
	golang.org/x/net v0.0.0-20210520170846-37e1c6afe023 // indirect
	golang.org/x/sys v0.0.0-20210616094352-59db8d763f22 // indirect
	golang.org/x/text v0.3.6 // indirect
	golang.org/x/tools v0.1.5 // indirect
	golang.org/x/xerrors v0.0.0-20200804184101-5ec99f83aff1 // indirect
	gopkg.in/inf.v0 v0.9.1 // indirect
	gopkg.in/yaml.v2 v2.4.0 // indirect
	gopkg.in/yaml.v3 v3.0.0-20210107192922-496545a6307b // indirect
	k8s.io/api v0.22.2 // indirect
	k8s.io/apiextensions-apiserver v0.22.2 // indirect
	k8s.io/apimachinery v0.22.2 // indirect
	k8s.io/klog/v2 v2.9.0 // indirect
	k8s.io/utils v0.0.0-20210819203725-bdf08cb9a70a // indirect
	sigs.k8s.io/structured-merge-diff/v4 v4.1.2 // indirect
	sigs.k8s.io/yaml v1.2.0 // indirect
)
